{
  "project_info": {
    "project_number": "567917693279",
    "firebase_url": "https://would-you-rather-83b68.firebaseio.com",
    "project_id": "would-you-rather-83b68",
    "storage_bucket": "would-you-rather-83b68.appspot.com"
  },
  "client": [
    {
      "client_info": {
        "mobilesdk_app_id": "1:567917693279:android:4dca4d097f252acb",
        "android_client_info": {
          "package_name": "com.satandigital.wouldyourather"
        }
      },
      "oauth_client": [
        {
          "client_id": "567917693279-ese6m1e9tbfa26iqbuu4jon1njnmebgj.apps.googleusercontent.com",
          "client_type": 1,
          "android_info": {
            "package_name": "com.satandigital.wouldyourather",
            "certificate_hash": "80A5C4E8A516EECB18A3A309DB18C78CDEF73F1C"
          }
        },
        {
          "client_id": "567917693279-d2c3si7p8rd6ao0ehibfgfr1pq3cpat6.apps.googleusercontent.com",
          "client_type": 3
        }
      ],
      "api_key": [
        {
          "current_key": "AIzaSyBPNxBltzh-VvFKPtKPtTtJu1Isxi_RHLg"
        }
      ],
      "services": {
        "analytics_service": {
          "status": 1
        },
        "appinvite_service": {
          "status": 2,
          "other_platform_oauth_client": [
            {
              "client_id": "567917693279-d2c3si7p8rd6ao0ehibfgfr1pq3cpat6.apps.googleusercontent.com",
              "client_type": 3
            }
          ]
        },
        "ads_service": {
          "status": 2
        }
      }
    }
  ],
  "configuration_version": "1"
}